{
  "images" : [
    {
      "idiom" : "universal",
      "scale" : "1x",
      "filename" : "iphone-5-2.png"
    },
    {
      "idiom" : "universal",
      "scale" : "2x",
      "filename" : "iphone-6-chat-bg.png"
    },
    {
      "idiom" : "universal",
      "scale" : "3x",
      "filename" : "iphone6plus_chatbg@3x.png"
    }
  ],
  "info" : {
    "version" : 1,
    "author" : "xcode"
  }
}